[
    {
      "id": 1,
      "name": "apple",
      "cost": 5.23,
      "image": "https://cdn4.iconfinder.com/data/icons/fruits-79/48/04-apple-512.png",
      "article":111,
      "color": "red"
    },
    {
      "id": 2,
      "name": "pear",
      "cost": 10.11,
      "image": "https://cdn4.iconfinder.com/data/icons/fruits-79/48/18-green_pear-512.png",
      "article":2222,
      "color": "yellow"
    },
    {
      "id": 3,
      "name": "peach",
      "cost": 18.34,
      "image": "https://cdn0.iconfinder.com/data/icons/fruits/512/Peach.png",
      "article":333,
      "color": "yellow"
    },
    {
      "id": 4,
      "name": "grapes",
      "cost": 11.56,
      "image": "https://cdn4.iconfinder.com/data/icons/vegetables-60/48/Fruits_grapes_food-512.png",
      "article":444,
      "color": "violet"
    },
    {
      "id": 5,
      "name": "pineapple",
      "cost": 8.67,
      "image": "https://cdn4.iconfinder.com/data/icons/fruits-79/48/17-pineapple-512.png",
      "article":555,
      "color": "yellow"
    },

    {
      "id": 6,
      "name": "strawberry",
      "cost": 9.99,
      "image": "https://cdn0.iconfinder.com/data/icons/valentine-s-day-181/1417/valentine_sticker_2_iconfinder-15-512.png",
      "article":666,
      "color": "red"
    },
    {
      "id": 7,
      "name": "tomato",
      "cost": 17.99,
      "image": "https://cdn0.iconfinder.com/data/icons/vegetables-ii-color/290/18-512.png",
      "article":777,
      "color": "red"
    },
    {
      "id": 8,
      "name": "mango",
      "cost": 15.86,
      "image": "https://cdn4.iconfinder.com/data/icons/fruits-79/48/14-mango-512.png",
      "article":888,
      "color": "orange"
    },
    {
      "id": 9,
      "name": "banana",
      "cost": 2.99,
      "image": "https://cdn4.iconfinder.com/data/icons/fruits-79/48/15-banana-512.png",
      "article":999,
      "color": "yellow"
    },
    {
      "id": 10,
      "name": "blackberry",
      "cost": 8.99,
      "image": "https://cdn2.iconfinder.com/data/icons/fruit-and-vegetables-3/200/293-512.png",
      "article":222,
      "color": "black"
    },
    {
      "id": 11,
      "name": "raspberry",
      "cost": 22.50,
      "image": "https://cdn4.iconfinder.com/data/icons/fruits-79/48/07-raspberry-512.png",
      "article":1212,
      "color": "pink"
    },
  {
    "id": 12,
    "name": "watermelon",
    "cost": 44.99,
    "image": "https://cdn4.iconfinder.com/data/icons/fruits-79/48/01-watermelon-512.png",
    "article":123312,
    "color": "green"
  }
]
